verilog/PxSensor_tb.vcd
$date
	Wed Nov 17 16:13:48 2021
$end
$version
	Icarus Verilog
$end
$timescale
	1ps
$end
$scope module PxSensor_tb $end
$var wire 1 ! anaRst $end
$var wire 8 " pxData1 [7:0] $end
$var wire 8 # pxData2 [7:0] $end
$var wire 8 $ pxData3 [7:0] $end
$var wire 8 % pxData4 [7:0] $end
$var wire 1 & read $end
$var wire 1 ' expose $end
$var wire 1 ( erase $end
$var wire 1 ) convert $end
$var wire 1 * anaRamp $end
$var wire 1 + anaClk $end
$var reg 1 , clk $end
$var reg 8 - data1 [7:0] $end
$var reg 8 . data2 [7:0] $end
$var reg 8 / data3 [7:0] $end
$var reg 8 0 data4 [7:0] $end
$var reg 32 1 outBus [31:0] $end
$var reg 8 2 pxDataOut1 [7:0] $end
$var reg 8 3 pxDataOut2 [7:0] $end
$var reg 8 4 pxDataOut3 [7:0] $end
$var reg 8 5 pxDataOut4 [7:0] $end
$var reg 1 6 rst $end
$scope module FSM $end
$var wire 1 , clk $end
$var wire 1 6 rst $end
$var reg 1 ) convert $end
$var reg 1 ( erase $end
$var reg 1 ' expose $end
$var reg 3 7 next_state [2:0] $end
$var reg 1 & read $end
$var reg 3 8 state [2:0] $end
$var integer 32 9 counter [31:0] $end
$var integer 32 : nRead [31:0] $end
$var integer 32 ; readReg [31:0] $end
$upscope $end
$scope module pixel1 $end
$var wire 1 + CLK $end
$var wire 8 < DATA [7:0] $end
$var wire 1 ( ERASE $end
$var wire 1 ' EXPOSE $end
$var wire 1 * RAMP $end
$var wire 1 & READ $end
$var wire 1 ! RESET $end
$var reg 1 = cmp $end
$var reg 8 > p_data [7:0] $end
$var real 1 ? adc $end
$var real 1 @ cmpin $end
$var real 1 A lsb $end
$var real 1 B vrst $end
$upscope $end
$scope module pixel2 $end
$var wire 1 + CLK $end
$var wire 8 C DATA [7:0] $end
$var wire 1 ( ERASE $end
$var wire 1 ' EXPOSE $end
$var wire 1 * RAMP $end
$var wire 1 & READ $end
$var wire 1 ! RESET $end
$var reg 1 D cmp $end
$var reg 8 E p_data [7:0] $end
$var real 1 F adc $end
$var real 1 G cmpin $end
$var real 1 H lsb $end
$var real 1 I vrst $end
$upscope $end
$scope module pixel3 $end
$var wire 1 + CLK $end
$var wire 8 J DATA [7:0] $end
$var wire 1 ( ERASE $end
$var wire 1 ' EXPOSE $end
$var wire 1 * RAMP $end
$var wire 1 & READ $end
$var wire 1 ! RESET $end
$var reg 1 K cmp $end
$var reg 8 L p_data [7:0] $end
$var real 1 M adc $end
$var real 1 N cmpin $end
$var real 1 O lsb $end
$var real 1 P vrst $end
$upscope $end
$scope module pixel4 $end
$var wire 1 + CLK $end
$var wire 8 Q DATA [7:0] $end
$var wire 1 ( ERASE $end
$var wire 1 ' EXPOSE $end
$var wire 1 * RAMP $end
$var wire 1 & READ $end
$var wire 1 ! RESET $end
$var reg 1 R cmp $end
$var reg 8 S p_data [7:0] $end
$var real 1 T adc $end
$var real 1 U cmpin $end
$var real 1 V lsb $end
$var real 1 W vrst $end
$upscope $end
$upscope $end
$enddefinitions $end
#500000
$dumpvars
r1.2 W
r0.004705882352941176 V
r0 U
r0 T
bx S
xR
bx Q
r1.2 P
r0.004705882352941176 O
r0 N
r0 M
bx L
xK
bx J
r1.2 I
r0.004705882352941176 H
r0 G
r0 F
bx E
xD
bx C
r1.2 B
r0.004705882352941176 A
r0 @
r0 ?
bx >
x=
bx <
b0 ;
b0 :
b0 9
b0 8
b0 7
06
b0 5
b0 4
b0 3
b0 2
b0 1
b0 0
b0 /
b0 .
b0 -
1,
x+
0*
0)
x(
x'
x&
bx %
bx $
bx #
bx "
1!
$end
#1000000
b0 "
b0 <
b0 #
b0 C
b0 $
b0 J
b0 %
b0 Q
r1.2 @
0=
b0 >
r1.2 G
0D
b0 E
r1.2 N
0K
b0 L
r1.2 U
0R
b0 S
0'
0&
1(
0+
0,
#1500000
b1 9
1,
#2000000
0,
#2500000
b10 9
1,
#3000000
0,
#3500000
b11 9
1,
#4000000
0,
#4500000
b100 9
1,
#5000000
0,
#5500000
b101 9
1,
#6000000
0,
#6500000
b100 8
b1 7
b110 9
1,
#7000000
0(
0,
#7500000
b1 8
b0 9
1,
#8000000
1'
0,
#8500000
r1.195764705882353 U
r1.196705882352941 N
r1.197647058823529 G
r1.196235294117647 @
1+
b1 9
1,
#9000000
0+
0,
#9500000
r1.192470588235294 @
r1.195294117647059 G
r1.193411764705882 N
r1.191529411764706 U
1+
b10 9
1,
#10000000
0+
0,
#10500000
r1.187294117647059 U
r1.190117647058823 N
r1.192941176470588 G
r1.188705882352941 @
1+
b11 9
1,
#11000000
0+
0,
#11500000
r1.184941176470588 @
r1.190588235294117 G
r1.186823529411764 N
r1.183058823529411 U
1+
b100 9
1,
#12000000
0+
0,
#12500000
r1.178823529411764 U
r1.183529411764705 N
r1.188235294117647 G
r1.181176470588235 @
1+
b101 9
1,
#13000000
0+
0,
#13500000
r1.177411764705883 @
r1.185882352941176 G
r1.180235294117647 N
r1.174588235294117 U
1+
b110 9
1,
#14000000
0+
0,
#14500000
r1.17035294117647 U
r1.176941176470588 N
r1.183529411764705 G
r1.17364705882353 @
1+
b111 9
1,
#15000000
0+
0,
#15500000
r1.169882352941177 @
r1.181176470588235 G
r1.173647058823529 N
r1.166117647058823 U
1+
b1000 9
1,
#16000000
0+
0,
#16500000
r1.161882352941176 U
r1.17035294117647 N
r1.178823529411764 G
r1.166117647058824 @
1+
b1001 9
1,
#17000000
0+
0,
#17500000
r1.162352941176471 @
r1.176470588235293 G
r1.167058823529411 N
r1.157647058823529 U
1+
b1010 9
1,
#18000000
0+
0,
#18500000
r1.153411764705882 U
r1.163764705882352 N
r1.174117647058823 G
r1.158588235294118 @
1+
b1011 9
1,
#19000000
0+
0,
#19500000
r1.154823529411765 @
r1.171764705882352 G
r1.160470588235293 N
r1.149176470588235 U
1+
b1100 9
1,
#20000000
0+
0,
#20500000
r1.144941176470587 U
r1.157176470588234 N
r1.169411764705881 G
r1.151058823529412 @
1+
b1101 9
1,
#21000000
0+
0,
#21500000
r1.147294117647059 @
r1.167058823529411 G
r1.153882352941175 N
r1.14070588235294 U
1+
b1110 9
1,
#22000000
0+
0,
#22500000
r1.136470588235293 U
r1.150588235294117 N
r1.16470588235294 G
r1.143529411764707 @
1+
b1111 9
1,
#23000000
0+
0,
#23500000
r1.139764705882354 @
r1.162352941176469 G
r1.147294117647058 N
r1.132235294117646 U
1+
b10000 9
1,
#24000000
0+
0,
#24500000
r1.127999999999999 U
r1.143999999999999 N
r1.159999999999999 G
r1.136000000000001 @
1+
b10001 9
1,
#25000000
0+
0,
#25500000
r1.132235294117648 @
r1.157647058823528 G
r1.14070588235294 N
r1.123764705882352 U
1+
b10010 9
1,
#26000000
0+
0,
#26500000
r1.119529411764705 U
r1.137411764705881 N
r1.155294117647057 G
r1.128470588235295 @
1+
b10011 9
1,
#27000000
0+
0,
#27500000
r1.124705882352942 @
r1.152941176470587 G
r1.134117647058822 N
r1.115294117647058 U
1+
b10100 9
1,
#28000000
0+
0,
#28500000
r1.111058823529411 U
r1.130823529411763 N
r1.150588235294116 G
r1.120941176470589 @
1+
b10101 9
1,
#29000000
0+
0,
#29500000
r1.117176470588236 @
r1.148235294117645 G
r1.127529411764704 N
r1.106823529411763 U
1+
b10110 9
1,
#30000000
0+
0,
#30500000
r1.102588235294116 U
r1.124235294117645 N
r1.145882352941175 G
r1.113411764705883 @
1+
b10111 9
1,
#31000000
0+
0,
#31500000
r1.109647058823531 @
r1.143529411764704 G
r1.120941176470587 N
r1.098352941176469 U
1+
b11000 9
1,
#32000000
0+
0,
#32500000
r1.094117647058822 U
r1.117647058823528 N
r1.141176470588233 G
r1.105882352941178 @
1+
b11001 9
1,
#33000000
0+
0,
#33500000
r1.102117647058825 @
r1.138823529411763 G
r1.114352941176469 N
r1.089882352941175 U
1+
b11010 9
1,
#34000000
0+
0,
#34500000
r1.085647058823528 U
r1.11105882352941 N
r1.136470588235292 G
r1.098352941176472 @
1+
b11011 9
1,
#35000000
0+
0,
#35500000
r1.094588235294119 @
r1.134117647058821 G
r1.107764705882351 N
r1.081411764705881 U
1+
b11100 9
1,
#36000000
0+
0,
#36500000
r1.077176470588234 U
r1.104470588235292 N
r1.131764705882351 G
r1.090823529411766 @
1+
b11101 9
1,
#37000000
0+
0,
#37500000
r1.087058823529413 @
r1.12941176470588 G
r1.101176470588233 N
r1.072941176470587 U
1+
b11110 9
1,
#38000000
0+
0,
#38500000
r1.068705882352939 U
r1.097882352941174 N
r1.127058823529409 G
r1.08329411764706 @
1+
b11111 9
1,
#39000000
0+
0,
#39500000
r1.079529411764707 @
r1.124705882352939 G
r1.094588235294115 N
r1.064470588235292 U
1+
b100000 9
1,
#40000000
0+
0,
#40500000
r1.060235294117645 U
r1.091294117647057 N
r1.122352941176468 G
r1.075764705882355 @
1+
b100001 9
1,
#41000000
0+
0,
#41500000
r1.072000000000002 @
r1.119999999999997 G
r1.087999999999998 N
r1.055999999999998 U
1+
b100010 9
1,
#42000000
0+
0,
#42500000
r1.051764705882351 U
r1.084705882352939 N
r1.117647058823527 G
r1.068235294117649 @
1+
b100011 9
1,
#43000000
0+
0,
#43500000
r1.064470588235296 @
r1.115294117647056 G
r1.08141176470588 N
r1.047529411764704 U
1+
b100100 9
1,
#44000000
0+
0,
#44500000
r1.043294117647057 U
r1.078117647058821 N
r1.112941176470585 G
r1.060705882352943 @
1+
b100101 9
1,
#45000000
0+
0,
#45500000
r1.05694117647059 @
r1.110588235294115 G
r1.074823529411762 N
r1.03905882352941 U
1+
b100110 9
1,
#46000000
0+
0,
#46500000
r1.034823529411762 U
r1.071529411764703 N
r1.108235294117644 G
r1.053176470588237 @
1+
b100111 9
1,
#47000000
0+
0,
#47500000
r1.049411764705884 @
r1.105882352941173 G
r1.068235294117644 N
r1.030588235294115 U
1+
b101000 9
1,
#48000000
0+
0,
#48500000
r1.026352941176468 U
r1.064941176470585 N
r1.103529411764703 G
r1.045647058823531 @
1+
b101001 9
1,
#49000000
0+
0,
#49500000
r1.041882352941178 @
r1.101176470588232 G
r1.061647058823527 N
r1.022117647058821 U
1+
b101010 9
1,
#50000000
0+
0,
#50500000
r1.017882352941174 U
r1.058352941176468 N
r1.098823529411761 G
r1.038117647058826 @
1+
b101011 9
1,
#51000000
0+
0,
#51500000
r1.034352941176473 @
r1.096470588235291 G
r1.055058823529409 N
r1.013647058823527 U
1+
b101100 9
1,
#52000000
0+
0,
#52500000
r1.00941176470588 U
r1.05176470588235 N
r1.09411764705882 G
r1.03058823529412 @
1+
b101101 9
1,
#53000000
0+
0,
#53500000
r1.026823529411767 @
r1.091764705882349 G
r1.048470588235291 N
r1.005176470588233 U
1+
b101110 9
1,
#54000000
0+
0,
#54500000
r1.000941176470586 U
r1.045176470588232 N
r1.089411764705879 G
r1.023058823529414 @
1+
b101111 9
1,
#55000000
0+
0,
#55500000
r1.019294117647061 @
r1.087058823529408 G
r1.041882352941173 N
r0.9967058823529386 U
1+
b110000 9
1,
#56000000
0+
0,
#56500000
r0.9924705882352916 U
r1.038588235294114 N
r1.084705882352937 G
r1.015529411764708 @
1+
b110001 9
1,
#57000000
0+
0,
#57500000
r1.011764705882355 @
r1.082352941176467 G
r1.035294117647055 N
r0.9882352941176445 U
1+
b110010 9
1,
#58000000
0+
0,
#58500000
r0.9839999999999975 U
r1.031999999999996 N
r1.079999999999996 G
r1.008000000000002 @
1+
b110011 9
1,
#59000000
0+
0,
#59500000
r1.00423529411765 @
r1.077647058823525 G
r1.028705882352938 N
r0.9797647058823505 U
1+
b110100 9
1,
#60000000
0+
0,
#60500000
r0.9755294117647035 U
r1.025411764705879 N
r1.075294117647055 G
r1.000470588235297 @
1+
b110101 9
1,
#61000000
0+
0,
#61500000
r0.9967058823529438 @
r1.072941176470584 G
r1.02211764705882 N
r0.9712941176470565 U
1+
b110110 9
1,
#62000000
0+
0,
#62500000
r0.9670588235294095 U
r1.018823529411761 N
r1.070588235294113 G
r0.9929411764705909 @
1+
b110111 9
1,
#63000000
0+
0,
#63500000
r0.989176470588238 @
r1.068235294117643 G
r1.015529411764702 N
r0.9628235294117625 U
1+
b111000 9
1,
#64000000
0+
0,
#64500000
r0.9585882352941155 U
r1.012235294117643 N
r1.065882352941172 G
r0.9854117647058851 @
1+
b111001 9
1,
#65000000
0+
0,
#65500000
r0.9816470588235322 @
r1.063529411764701 G
r1.008941176470584 N
r0.9543529411764685 U
1+
b111010 9
1,
#66000000
0+
0,
#66500000
r0.9501176470588215 U
r1.005647058823525 N
r1.061176470588231 G
r0.9778823529411793 @
1+
b111011 9
1,
#67000000
0+
0,
#67500000
r0.9741176470588264 @
r1.05882352941176 G
r1.002352941176466 N
r0.9458823529411745 U
1+
b111100 9
1,
#68000000
0+
0,
#68500000
r0.9416470588235275 U
r0.9990588235294077 N
r1.056470588235289 G
r0.9703529411764735 @
1+
b111101 9
1,
#69000000
0+
0,
#69500000
r0.9665882352941206 @
r1.054117647058818 G
r0.9957647058823489 N
r0.9374117647058805 U
1+
b111110 9
1,
#70000000
0+
0,
#70500000
r0.9331764705882335 U
r0.9924705882352901 N
r1.051764705882348 G
r0.9628235294117677 @
1+
b111111 9
1,
#71000000
0+
0,
#71500000
r0.9590588235294149 @
r1.049411764705877 G
r0.9891764705882313 N
r0.9289411764705865 U
1+
b1000000 9
1,
#72000000
0+
0,
#72500000
r0.9247058823529395 U
r0.9858823529411725 N
r1.047058823529406 G
r0.955294117647062 @
1+
b1000001 9
1,
#73000000
0+
0,
#73500000
r0.9515294117647091 @
r1.044705882352936 G
r0.9825882352941138 N
r0.9204705882352925 U
1+
b1000010 9
1,
#74000000
0+
0,
#74500000
r0.9162352941176455 U
r0.979294117647055 N
r1.042352941176465 G
r0.9477647058823562 @
1+
b1000011 9
1,
#75000000
0+
0,
#75500000
r0.9440000000000033 @
r1.039999999999994 G
r0.9759999999999962 N
r0.9119999999999985 U
1+
b1000100 9
1,
#76000000
0+
0,
#76500000
r0.9077647058823515 U
r0.9727058823529374 N
r1.037647058823524 G
r0.9402352941176504 @
1+
b1000101 9
1,
#77000000
0+
0,
#77500000
r0.9364705882352975 @
r1.035294117647053 G
r0.9694117647058786 N
r0.9035294117647045 U
1+
b1000110 9
1,
#78000000
0+
0,
#78500000
r0.8992941176470575 U
r0.9661176470588199 N
r1.032941176470582 G
r0.9327058823529446 @
1+
b1000111 9
1,
#79000000
0+
0,
#79500000
r0.9289411764705917 @
r1.030588235294112 G
r0.9628235294117611 N
r0.8950588235294105 U
1+
b1001000 9
1,
#80000000
0+
0,
#80500000
r0.8908235294117635 U
r0.9595294117647023 N
r1.028235294117641 G
r0.9251764705882388 @
1+
b1001001 9
1,
#81000000
0+
0,
#81500000
r0.9214117647058859 @
r1.02588235294117 G
r0.9562352941176435 N
r0.8865882352941165 U
1+
b1001010 9
1,
#82000000
0+
0,
#82500000
r0.8823529411764695 U
r0.9529411764705847 N
r1.0235294117647 G
r0.917647058823533 @
1+
b1001011 9
1,
#83000000
0+
0,
#83500000
r0.9138823529411801 @
r1.021176470588229 G
r0.949647058823526 N
r0.8781176470588224 U
1+
b1001100 9
1,
#84000000
0+
0,
#84500000
r0.8738823529411754 U
r0.9463529411764672 N
r1.018823529411758 G
r0.9101176470588273 @
1+
b1001101 9
1,
#85000000
0+
0,
#85500000
r0.9063529411764744 @
r1.016470588235288 G
r0.9430588235294084 N
r0.8696470588235284 U
1+
b1001110 9
1,
#86000000
0+
0,
#86500000
r0.8654117647058814 U
r0.9397647058823496 N
r1.014117647058817 G
r0.9025882352941215 @
1+
b1001111 9
1,
#87000000
0+
0,
#87500000
r0.8988235294117686 @
r1.011764705882346 G
r0.9364705882352908 N
r0.8611764705882344 U
1+
b1010000 9
1,
#88000000
0+
0,
#88500000
r0.8569411764705874 U
r0.9331764705882321 N
r1.009411764705876 G
r0.8950588235294157 @
1+
b1010001 9
1,
#89000000
0+
0,
#89500000
r0.8912941176470628 @
r1.007058823529405 G
r0.9298823529411733 N
r0.8527058823529404 U
1+
b1010010 9
1,
#90000000
0+
0,
#90500000
r0.8484705882352934 U
r0.9265882352941145 N
r1.004705882352934 G
r0.8875294117647099 @
1+
b1010011 9
1,
#91000000
0+
0,
#91500000
r0.883764705882357 @
r1.002352941176464 G
r0.9232941176470557 N
r0.8442352941176464 U
1+
b1010100 9
1,
#92000000
0+
0,
#92500000
r0.8399999999999994 U
r0.9199999999999969 N
r0.9999999999999932 G
r0.8800000000000041 @
1+
b1010101 9
1,
#93000000
0+
0,
#93500000
r0.8762352941176512 @
r0.9976470588235227 G
r0.9167058823529382 N
r0.8357647058823524 U
1+
b1010110 9
1,
#94000000
0+
0,
#94500000
r0.8315294117647054 U
r0.9134117647058794 N
r0.9952941176470521 G
r0.8724705882352983 @
1+
b1010111 9
1,
#95000000
0+
0,
#95500000
r0.8687058823529454 @
r0.9929411764705816 G
r0.9101176470588206 N
r0.8272941176470584 U
1+
b1011000 9
1,
#96000000
0+
0,
#96500000
r0.8230588235294114 U
r0.9068235294117618 N
r0.990588235294111 G
r0.8649411764705925 @
1+
b1011001 9
1,
#97000000
0+
0,
#97500000
r0.8611764705882397 @
r0.9882352941176404 G
r0.903529411764703 N
r0.8188235294117644 U
1+
b1011010 9
1,
#98000000
0+
0,
#98500000
r0.8145882352941174 U
r0.9002352941176442 N
r0.9858823529411699 G
r0.8574117647058868 @
1+
b1011011 9
1,
#99000000
0+
0,
#99500000
r0.8536470588235339 @
r0.9835294117646993 G
r0.8969411764705855 N
r0.8103529411764704 U
1+
b1011100 9
1,
#100000000
0+
0,
#100500000
r0.8061176470588234 U
r0.8936470588235267 N
r0.9811764705882288 G
r0.849882352941181 @
1+
b1011101 9
1,
#101000000
0+
0,
#101500000
r0.8461176470588281 @
r0.9788235294117582 G
r0.8903529411764679 N
r0.8018823529411764 U
1+
b1011110 9
1,
#102000000
0+
0,
#102500000
r0.7976470588235294 U
r0.8870588235294091 N
r0.9764705882352877 G
r0.8423529411764752 @
1+
b1011111 9
1,
#103000000
0+
0,
#103500000
r0.8385882352941223 @
r0.9741176470588171 G
r0.8837647058823503 N
r0.7934117647058824 U
1+
b1100000 9
1,
#104000000
0+
0,
#104500000
r0.7891764705882354 U
r0.8804705882352916 N
r0.9717647058823465 G
r0.8348235294117694 @
1+
b1100001 9
1,
#105000000
0+
0,
#105500000
r0.8310588235294165 @
r0.969411764705876 G
r0.8771764705882328 N
r0.7849411764705884 U
1+
b1100010 9
1,
#106000000
0+
0,
#106500000
r0.7807058823529414 U
r0.873882352941174 N
r0.9670588235294054 G
r0.8272941176470636 @
1+
b1100011 9
1,
#107000000
0+
0,
#107500000
r0.8235294117647107 @
r0.9647058823529349 G
r0.8705882352941152 N
r0.7764705882352944 U
1+
b1100100 9
1,
#108000000
0+
0,
#108500000
r0.7722352941176474 U
r0.8672941176470564 N
r0.9623529411764643 G
r0.8197647058823578 @
1+
b1100101 9
1,
#109000000
0+
0,
#109500000
r0.8160000000000049 @
r0.9599999999999937 G
r0.8639999999999977 N
r0.7680000000000003 U
1+
b1100110 9
1,
#110000000
0+
0,
#110500000
r0.7637647058823533 U
r0.8607058823529389 N
r0.9576470588235232 G
r0.8122352941176521 @
1+
b1100111 9
1,
#111000000
0+
0,
#111500000
r0.8084705882352992 @
r0.9552941176470526 G
r0.8574117647058801 N
r0.7595294117647063 U
1+
b1101000 9
1,
#112000000
0+
0,
#112500000
r0.7552941176470593 U
r0.8541176470588213 N
r0.9529411764705821 G
r0.8047058823529463 @
1+
b1101001 9
1,
#113000000
0+
0,
#113500000
r0.8009411764705934 @
r0.9505882352941115 G
r0.8508235294117625 N
r0.7510588235294123 U
1+
b1101010 9
1,
#114000000
0+
0,
#114500000
r0.7468235294117653 U
r0.8475294117647038 N
r0.948235294117641 G
r0.7971764705882405 @
1+
b1101011 9
1,
#115000000
0+
0,
#115500000
r0.7934117647058876 @
r0.9458823529411704 G
r0.844235294117645 N
r0.7425882352941183 U
1+
b1101100 9
1,
#116000000
0+
0,
#116500000
r0.7383529411764713 U
r0.8409411764705862 N
r0.9435294117646998 G
r0.7896470588235347 @
1+
b1101101 9
1,
#117000000
0+
0,
#117500000
r0.7858823529411818 @
r0.9411764705882293 G
r0.8376470588235274 N
r0.7341176470588243 U
1+
b1101110 9
1,
#118000000
0+
0,
#118500000
r0.7298823529411773 U
r0.8343529411764686 N
r0.9388235294117587 G
r0.7821176470588289 @
1+
b1101111 9
1,
#119000000
0+
0,
#119500000
r0.778352941176476 @
r0.9364705882352882 G
r0.8310588235294099 N
r0.7256470588235303 U
1+
b1110000 9
1,
#120000000
0+
0,
#120500000
r0.7214117647058833 U
r0.8277647058823511 N
r0.9341176470588176 G
r0.7745882352941231 @
1+
b1110001 9
1,
#121000000
0+
0,
#121500000
r0.7708235294117702 @
r0.9317647058823471 G
r0.8244705882352923 N
r0.7171764705882363 U
1+
b1110010 9
1,
#122000000
0+
0,
#122500000
r0.7129411764705893 U
r0.8211764705882335 N
r0.9294117647058765 G
r0.7670588235294173 @
1+
b1110011 9
1,
#123000000
0+
0,
#123500000
r0.7632941176470645 @
r0.9270588235294059 G
r0.8178823529411747 N
r0.7087058823529423 U
1+
b1110100 9
1,
#124000000
0+
0,
#124500000
r0.7044705882352953 U
r0.8145882352941159 N
r0.9247058823529354 G
r0.7595294117647116 @
1+
b1110101 9
1,
#125000000
0+
0,
#125500000
r0.7557647058823587 @
r0.9223529411764648 G
r0.8112941176470572 N
r0.7002352941176483 U
1+
b1110110 9
1,
#126000000
0+
0,
#126500000
r0.6960000000000013 U
r0.8079999999999984 N
r0.9199999999999943 G
r0.7520000000000058 @
1+
b1110111 9
1,
#127000000
0+
0,
#127500000
r0.7482352941176529 @
r0.9176470588235237 G
r0.8047058823529396 N
r0.6917647058823543 U
1+
b1111000 9
1,
#128000000
0+
0,
#128500000
r0.6875294117647073 U
r0.8014117647058808 N
r0.9152941176470532 G
r0.7444705882353 @
1+
b1111001 9
1,
#129000000
0+
0,
#129500000
r0.7407058823529471 @
r0.9129411764705826 G
r0.798117647058822 N
r0.6832941176470603 U
1+
b1111010 9
1,
#130000000
0+
0,
#130500000
r0.6790588235294133 U
r0.7948235294117633 N
r0.910588235294112 G
r0.7369411764705942 @
1+
b1111011 9
1,
#131000000
0+
0,
#131500000
r0.7331764705882413 @
r0.9082352941176415 G
r0.7915294117647045 N
r0.6748235294117663 U
1+
b1111100 9
1,
#132000000
0+
0,
#132500000
r0.6705882352941193 U
r0.7882352941176457 N
r0.9058823529411709 G
r0.7294117647058884 @
1+
b1111101 9
1,
#133000000
0+
0,
#133500000
r0.7256470588235355 @
r0.9035294117647004 G
r0.7849411764705869 N
r0.6663529411764723 U
1+
b1111110 9
1,
#134000000
0+
0,
#134500000
r0.6621176470588253 U
r0.7816470588235281 N
r0.9011764705882298 G
r0.7218823529411826 @
1+
b1111111 9
1,
#135000000
0+
0,
#135500000
r0.7181176470588297 @
r0.8988235294117592 G
r0.7783529411764694 N
r0.6578823529411783 U
1+
b10000000 9
1,
#136000000
0+
0,
#136500000
r0.6536470588235312 U
r0.7750588235294106 N
r0.8964705882352887 G
r0.7143529411764769 @
1+
b10000001 9
1,
#137000000
0+
0,
#137500000
r0.710588235294124 @
r0.8941176470588181 G
r0.7717647058823518 N
r0.6494117647058842 U
1+
b10000010 9
1,
#138000000
0+
0,
#138500000
r0.6451764705882372 U
r0.768470588235293 N
r0.8917647058823476 G
r0.7068235294117711 @
1+
b10000011 9
1,
#139000000
0+
0,
#139500000
r0.7030588235294182 @
r0.889411764705877 G
r0.7651764705882342 N
r0.6409411764705902 U
1+
b10000100 9
1,
#140000000
0+
0,
#140500000
r0.6367058823529432 U
r0.7618823529411755 N
r0.8870588235294065 G
r0.6992941176470653 @
1+
b10000101 9
1,
#141000000
0+
0,
#141500000
r0.6955294117647124 @
r0.8847058823529359 G
r0.7585882352941167 N
r0.6324705882352962 U
1+
b10000110 9
1,
#142000000
0+
0,
#142500000
r0.6282352941176492 U
r0.7552941176470579 N
r0.8823529411764653 G
r0.6917647058823595 @
1+
b10000111 9
1,
#143000000
0+
0,
#143500000
r0.6880000000000066 @
r0.8799999999999948 G
r0.7519999999999991 N
r0.6240000000000022 U
1+
b10001000 9
1,
#144000000
0+
0,
#144500000
r0.6197647058823552 U
r0.7487058823529403 N
r0.8776470588235242 G
r0.6842352941176537 @
1+
b10001001 9
1,
#145000000
0+
0,
#145500000
r0.6804705882353008 @
r0.8752941176470537 G
r0.7454117647058816 N
r0.6155294117647082 U
1+
b10001010 9
1,
#146000000
0+
0,
#146500000
r0.6112941176470612 U
r0.7421176470588228 N
r0.8729411764705831 G
r0.6767058823529479 @
1+
b10001011 9
1,
#147000000
0+
0,
#147500000
r0.672941176470595 @
r0.8705882352941126 G
r0.738823529411764 N
r0.6070588235294142 U
1+
b10001100 9
1,
#148000000
0+
0,
#148500000
r0.6028235294117672 U
r0.7355294117647052 N
r0.868235294117642 G
r0.6691764705882421 @
1+
b10001101 9
1,
#149000000
0+
0,
#149500000
r0.6654117647058893 @
r0.8658823529411714 G
r0.7322352941176464 N
r0.5985882352941202 U
1+
b10001110 9
1,
#150000000
0+
0,
#150500000
r0.5943529411764732 U
r0.7289411764705876 N
r0.8635294117647009 G
r0.6616470588235364 @
1+
b10001111 9
1,
#151000000
0+
0,
#151500000
r0.6578823529411835 @
r0.8611764705882303 G
r0.7256470588235289 N
r0.5901176470588262 U
1+
b10010000 9
1,
#152000000
0+
0,
#152500000
r0.5858823529411792 U
r0.7223529411764701 N
r0.8588235294117598 G
r0.6541176470588306 @
1+
b10010001 9
1,
#153000000
0+
0,
#153500000
r0.6503529411764777 @
r0.8564705882352892 G
r0.7190588235294113 N
r0.5816470588235322 U
1+
b10010010 9
1,
#154000000
0+
0,
#154500000
r0.5774117647058852 U
r0.7157647058823525 N
r0.8541176470588187 G
r0.6465882352941248 @
1+
b10010011 9
1,
#155000000
0+
0,
#155500000
r0.6428235294117719 @
r0.8517647058823481 G
r0.7124705882352937 N
r0.5731764705882382 U
1+
b10010100 9
1,
#156000000
0+
0,
#156500000
r0.5689411764705912 U
r0.709176470588235 N
r0.8494117647058775 G
r0.639058823529419 @
1+
b10010101 9
1,
#157000000
0+
0,
#157500000
r0.6352941176470661 @
r0.847058823529407 G
r0.7058823529411762 N
r0.5647058823529442 U
1+
b10010110 9
1,
#158000000
0+
0,
#158500000
r0.5604705882352972 U
r0.7025882352941174 N
r0.8447058823529364 G
r0.6315294117647132 @
1+
b10010111 9
1,
#159000000
0+
0,
#159500000
r0.6277647058823603 @
r0.8423529411764659 G
r0.6992941176470586 N
r0.5562352941176502 U
1+
b10011000 9
1,
#160000000
0+
0,
#160500000
r0.5520000000000032 U
r0.6959999999999998 N
r0.8399999999999953 G
r0.6240000000000074 @
1+
b10011001 9
1,
#161000000
0+
0,
#161500000
r0.6202352941176545 @
r0.8376470588235247 G
r0.6927058823529411 N
r0.5477647058823562 U
1+
b10011010 9
1,
#162000000
0+
0,
#162500000
r0.5435294117647091 U
r0.6894117647058823 N
r0.8352941176470542 G
r0.6164705882353017 @
1+
b10011011 9
1,
#163000000
0+
0,
#163500000
r0.6127058823529488 @
r0.8329411764705836 G
r0.6861176470588235 N
r0.5392941176470621 U
1+
b10011100 9
1,
#164000000
0+
0,
#164500000
r0.5350588235294151 U
r0.6828235294117647 N
r0.8305882352941131 G
r0.6089411764705959 @
1+
b10011101 9
1,
#165000000
0+
0,
#165500000
r0.605176470588243 @
r0.8282352941176425 G
r0.6795294117647059 N
r0.5308235294117681 U
1+
b10011110 9
1,
#166000000
0+
0,
#166500000
r0.5265882352941211 U
r0.6762352941176472 N
r0.825882352941172 G
r0.6014117647058901 @
1+
b10011111 9
1,
#167000000
0+
0,
#167500000
r0.5976470588235372 @
r0.8235294117647014 G
r0.6729411764705884 N
r0.5223529411764741 U
1+
b10100000 9
1,
#168000000
0+
0,
#168500000
r0.5181176470588271 U
r0.6696470588235296 N
r0.8211764705882308 G
r0.5938823529411843 @
1+
b10100001 9
1,
#169000000
0+
0,
#169500000
r0.5901176470588314 @
r0.8188235294117603 G
r0.6663529411764708 N
r0.5138823529411801 U
1+
b10100010 9
1,
#170000000
0+
0,
#170500000
r0.5096470588235331 U
r0.663058823529412 N
r0.8164705882352897 G
r0.5863529411764785 @
1+
b10100011 9
1,
#171000000
0+
0,
#171500000
r0.5825882352941256 @
r0.8141176470588192 G
r0.6597647058823533 N
r0.5054117647058861 U
1+
b10100100 9
1,
#172000000
0+
0,
#172500000
r0.5011764705882391 U
r0.6564705882352945 N
r0.8117647058823486 G
r0.5788235294117727 @
1+
b10100101 9
1,
#173000000
0+
0,
#173500000
r0.5750588235294198 @
r0.8094117647058781 G
r0.6531764705882357 N
r0.496941176470592 U
1+
b10100110 9
1,
#174000000
0+
0,
#174500000
r0.492705882352945 U
r0.6498823529411769 N
r0.8070588235294075 G
r0.5712941176470669 @
1+
b10100111 9
1,
#175000000
0+
0,
#175500000
r0.5675294117647141 @
r0.8047058823529369 G
r0.6465882352941181 N
r0.4884705882352979 U
1+
b10101000 9
1,
#176000000
0+
0,
#176500000
r0.4842352941176509 U
r0.6432941176470593 N
r0.8023529411764664 G
r0.5637647058823612 @
1+
b10101001 9
1,
#177000000
0+
0,
#177500000
r0.5600000000000083 @
r0.7999999999999958 G
r0.6400000000000006 N
r0.4800000000000038 U
1+
b10101010 9
1,
#178000000
0+
0,
#178500000
r0.4757647058823568 U
r0.6367058823529418 N
r0.7976470588235253 G
r0.5562352941176554 @
1+
b10101011 9
1,
#179000000
0+
0,
